[
  {
   "name":"Roux",
   "ingredients":["Flour", "Butter"]
  },
  {
    "name":"Béchamel",
    "parent":"Roux", 
    "ingredients":["Milk"]
  },
  {
    "name":"Velouté",
    "parent":"Roux",
    "ingredients":["Stock"]
  },
  {
    "name":"Hollandaise",
    "ingredients":["Egg yolk", "Butter", "Lemon"]
  },
  {
    "name":"Espagnole",
    "parent":"Velouté",
    "ingredients":["Tomato"],
    "notes":"Velouté is typically made with a light roux, and may use any stock, Espagnole requires a dark roux and specifically Veal stock"
  },
  {
    "name":"Tomate",
    "ingredients":["Tomato", "Onion", "Pork"]
  }, 
  {
    "name":"Mornay",
    "parent":"Béchamel",
    "ingredients":["Cheese"]
  },{
    "name":"Crème",
    "parent":"Béchamel",
    "ingredients":["Cream"]
  },{
    "name":"Nantua",
    "parent":"Crème",
    "ingredients":["Crayfish", "Butter"]
  },
  {
    "name":"Soubise",
    "parent":"Béchamel",
    "ingredients":["Onion"]
  }, 
  {
    "name":"Albufera",
    "parent":"Velouté",
    "ingredients":["Glace de Viande"]
  },
  { 
    "name":"Allemande", 
    "parent":"Velouté",
    "ingredients":["Lemon", "Egg Yolk", "Cream"]
  },
  { 
    "name":"Bercy", 
    "parent":"Velouté",
    "ingredients":["Shallots", "White Wine", "Lemon", "Parsley"],
    "notes":"Based on a fish Velouté"
  },
  {
    "name":"Poulette",
    "parent":"Allemande", 
    "ingredients":["Mushrooms", "Parsley", "Lemon"],
    "notes":"Based on either a Poultry Velouté or Allemande"
  },
  {
    "name":"Aurore",
    "parent":"Velouté",
    "ingredients":["Tomato"]
  },
  {
    "name":"Hungarian",
    "parent":"Velouté",
    "ingredients":["Onion", "Paprika", "White Wine"]
  },
  {
    "name":"Normande",
    "parent":"Velouté",
    "ingredients":["Cream", "Butter", "Egg Yolk"]
  },
  {
    "name":"Suprême",
    "parent":"Velouté",
    "ingredients":["Mushroom Liquor", "Cream"],
    "notes":"Based on a Chicken Velouté"
  },
  {
    "name":"Venetian",
    "parent":"Velouté",
    "ingredients":["Tarragon", "Shallots", "Chervill"]
  }, 
  {
    "name":"Africaine",
    "parent":"Espagnole",
    "ingredients":["Onion", "Green Pepper", "Basil", "Bay Leaf", "Red Wine"]
  }, 
  {
    "name":"Bourguignonne",
    "parent":"Espagnole",
    "ingredients":["Onion", "Red Wine", "Butter", "Cayenne Pepper"]
  },
  {
    "name":"Sauce aux Champignons",
    "parent": "Espagnole",
    "ingredients":["Mushroom"]
  },
  {
    "name":"Sauce Charcutière",
    "parent":"Espagnole",
    "ingredients":["Gherkins"]
  },
  {
    "name":"Chasseur",
    "parent":"Espagnole",
    "ingredients":["Mushroom", "Shallots", "Parsley", "Chives", "Tarragon"]
  },
  {
    "name":"Poivrade",
    "parent":"Espagnole",
    "ingredients":["Peppercorn"]
  },
  {
    "name":"Chevreuil",
    "parent":"Poivrade",
    "ingredients":["Bacon"]
  },
  {
    "name":"Demi-glace",
    "parent":"Espagnole",
    "ingredients":["Veal Stock"]
  }, 
  {
    "name":"Béarnaise",
    "parent":"Hollandaise",
    "ingredients":["Vinegar", "Shallots", "Tarragon", "Chervil", "Peppercorn"]
  },
  { 
    "name":"Choron",
    "parent":"Béarnaise",
    "ingredients":["Tomato"],
    "notes":"Made without any of the herbs used in Béarnaise"
  }, 
  {
    "name":"Foyot",
    "parent":"Béarnaise",
    "ingredients":["Glace de Viande"],
    "notes": "Also known as Valois"
  }, 
  {
    "name":"Colbert",
    "parent":"Foyot",
    "ingredients":["White Wine"]
  },
  {
    "name":"Paloise",
    "parent":"Béarnaise",
    "ingredients":["Mint"],
    "notes":"The mint is used as a substitute for tarragon"
  },
  {
    "name":"Barvaroise",
    "parent":"Hollandaise",
    "ingredients":["Cream", "Horseradish", "Thyme"]
  },
  { 
    "name":"Crème Fleurette",
    "parent":"Hollandaise",
    "ingredients":["Crème Fraîche"]
  },
  { 
    "name":"Dijon",
    "parent":"Hollandaise",
    "ingredients":["Dijon Mustard"]
  },
  { 
    "name":"Maltaise",
    "parent":"Hollandaise",
    "ingredients":["Blood Orange"]
  },
  {
    "name":"Mousseline",
    "parent":"Hollandaise",
    "ingredients":["Whipped Cream"],
    "notes":"Also known as Chantilly"
  },
  {
    "name":"Divine",
    "parent":"Mousseline",
    "ingredients":["Sherry"]
  }, 
  {
    "name":"Spanish",
    "parent":"Tomate",
    "ingredients":["Green Pepper", "Mushroom", "Garlic"]
  }, 
  {
    "name":"Creole",
    "parent":"Tomate",
    "ingredients":["Green Pepper", "Celery", "Cayenne Pepper"]
  },
  {
    "name":"Portuguese",
    "parent":"Tomate",
    "ingredients":["Garlic", "Parsley"]
  },
  {
    "name":"Provençale",
    "parent":"Tomate", 
    "ingredients":["Garlic", "Capers", "Olives", "Herbes de Provence"]
  }
]
